lab3/Submit_lab3/project_files/simulation/qsim/lab3.msim.vcd
$comment
	File created using the following command:
		vcd file lab3.msim.vcd -direction
$end
$date
	Wed Sep 01 15:14:55 2021
$end
$version
	ModelSim Version 10.5b
$end
$timescale
	1ps
$end

$scope module lab3_vlg_vec_tst $end
$var reg 1 ! CLK $end
$var reg 1 " D0 $end
$var reg 1 # D1 $end
$var reg 1 $ D2 $end
$var reg 1 % D3 $end
$var reg 1 & EXECUTE $end
$var reg 1 ' F0 $end
$var reg 1 ( F1 $end
$var reg 1 ) F2 $end
$var reg 1 * LOAD_A $end
$var reg 1 + LOAD_B $end
$var reg 1 , R0 $end
$var reg 1 - R1 $end
$var wire 1 . NOTQ $end
$var wire 1 / Q0 $end
$var wire 1 0 Q1 $end
$var wire 1 1 RA0 $end
$var wire 1 2 RA1 $end
$var wire 1 3 RA2 $end
$var wire 1 4 RA3 $end
$var wire 1 5 RB0 $end
$var wire 1 6 RB1 $end
$var wire 1 7 RB2 $end
$var wire 1 8 RB3 $end
$var wire 1 9 S $end

$scope module i1 $end
$var wire 1 : gnd $end
$var wire 1 ; vcc $end
$var wire 1 < unknown $end
$var tri1 1 = devclrn $end
$var tri1 1 > devpor $end
$var tri1 1 ? devoe $end
$var wire 1 @ RA0~output_o $end
$var wire 1 A RA1~output_o $end
$var wire 1 B RA2~output_o $end
$var wire 1 C RA3~output_o $end
$var wire 1 D RB0~output_o $end
$var wire 1 E RB1~output_o $end
$var wire 1 F RB2~output_o $end
$var wire 1 G RB3~output_o $end
$var wire 1 H Q0~output_o $end
$var wire 1 I Q1~output_o $end
$var wire 1 J NOTQ~output_o $end
$var wire 1 K S~output_o $end
$var wire 1 L CLK~input_o $end
$var wire 1 M CLK~inputclkctrl_outclk $end
$var wire 1 N R1~input_o $end
$var wire 1 O R0~input_o $end
$var wire 1 P D0~input_o $end
$var wire 1 Q LOAD_A~input_o $end
$var wire 1 R D1~input_o $end
$var wire 1 S D2~input_o $end
$var wire 1 T RegA|36~0_combout $end
$var wire 1 U EXECUTE~input_o $end
$var wire 1 V inst|15~0_combout $end
$var wire 1 W inst|15~q $end
$var wire 1 X inst32~combout $end
$var wire 1 Y inst31|9~q $end
$var wire 1 Z inst|3~0_combout $end
$var wire 1 [ inst|3~q $end
$var wire 1 \ RegA|34~0_combout $end
$var wire 1 ] RegA|34~1_combout $end
$var wire 1 ^ RegA|40~q $end
$var wire 1 _ RegA|35~0_combout $end
$var wire 1 ` RegA|39~q $end
$var wire 1 a inst33~combout $end
$var wire 1 b RegA|34~2_combout $end
$var wire 1 c RegA|34~3_combout $end
$var wire 1 d RegA|38~q $end
$var wire 1 e LOAD_B~input_o $end
$var wire 1 f F2~input_o $end
$var wire 1 g F0~input_o $end
$var wire 1 h F1~input_o $end
$var wire 1 i 4-1MUX|9~0_combout $end
$var wire 1 j RegB|37~0_combout $end
$var wire 1 k D3~input_o $end
$var wire 1 l RegB|37~1_combout $end
$var wire 1 m RegB|37~2_combout $end
$var wire 1 n RegB|34~0_combout $end
$var wire 1 o RegB|41~q $end
$var wire 1 p RegB|36~0_combout $end
$var wire 1 q RegB|40~q $end
$var wire 1 r RegB|35~0_combout $end
$var wire 1 s RegB|39~q $end
$var wire 1 t RegB|34~1_combout $end
$var wire 1 u RegB|34~2_combout $end
$var wire 1 v RegB|38~q $end
$var wire 1 w RegA|37~1_combout $end
$var wire 1 x RegA|37~0_combout $end
$var wire 1 y RegA|37~2_combout $end
$var wire 1 z RegA|41~q $end
$upscope $end
$upscope $end
$enddefinitions $end
#0
$dumpvars
0!
0"
0#
0$
0%
0&
0'
0(
0)
0*
0+
0,
0-
1.
0/
00
01
02
03
04
05
06
07
08
09
0:
1;
x<
1=
1>
1?
0@
0A
0B
0C
0D
0E
0F
0G
0H
0I
1J
0K
0L
0M
0N
0O
0P
0Q
0R
0S
0T
0U
0V
0W
0X
0Y
0Z
0[
1\
0]
0^
0_
0`
0a
0b
0c
0d
0e
0f
0g
0h
0i
0j
0k
0l
0m
0n
0o
0p
0q
0r
0s
0t
0u
0v
0w
0x
0y
0z
$end
#5000
1!
1L
1M
#10000
1#
1"
0!
1R
1P
0L
0M
#15000
1!
1L
1M
#20000
0!
0L
0M
#25000
1!
1L
1M
#30000
1*
0!
1Q
0L
0M
1]
1c
1_
#35000
1!
1L
1M
1d
1`
1B
1C
1w
14
13
#40000
0!
0L
0M
#45000
1!
1L
1M
#50000
0#
0"
0*
0!
0R
0P
0Q
0L
0M
1b
0]
0_
0c
1y
1c
#55000
1!
1L
1M
#60000
0!
0L
0M
#65000
1!
1L
1M
#70000
1%
1$
0!
1k
1S
0L
0M
#75000
1!
1L
1M
#80000
0!
0L
0M
#85000
1!
1L
1M
#90000
1*
0!
1Q
0L
0M
0b
1]
1T
0c
#95000
1!
1L
1M
1z
0d
0`
1^
1A
0B
0C
1@
0w
11
04
03
12
#100000
0!
0L
0M
#105000
1!
1L
1M
#110000
0%
0$
0*
0!
0k
0S
0Q
0L
0M
0]
0y
1_
#115000
1!
1L
1M
#120000
0!
0L
0M
#125000
1!
1L
1M
#130000
0!
0L
0M
#135000
1!
1L
1M
#140000
0!
0L
0M
#145000
1!
1L
1M
#150000
1*
0!
1Q
0L
0M
1]
0_
0T
#155000
1!
1L
1M
0z
0^
0A
0@
01
02
#160000
0!
0L
0M
#165000
1!
1L
1M
#170000
0*
0!
0Q
0L
0M
0]
#175000
1!
1L
1M
#180000
0!
0L
0M
#185000
1!
1L
1M
#190000
1#
1"
0!
1R
1P
0L
0M
#195000
1!
1L
1M
#200000
0!
0L
0M
#205000
1!
1L
1M
#210000
1+
0!
1e
0L
0M
1n
1u
1r
#215000
1!
1L
1M
1v
1s
1F
1G
1l
18
17
#220000
0!
0L
0M
#225000
1!
1L
1M
#230000
0#
0"
0+
0!
0R
0P
0e
0L
0M
1t
0n
0r
0u
1m
1u
#235000
1!
1L
1M
#240000
0!
0L
0M
#245000
1!
1L
1M
#250000
1%
1$
0!
1k
1S
0L
0M
#255000
1!
1L
1M
#260000
0!
0L
0M
#265000
1!
1L
1M
#270000
1+
0!
1e
0L
0M
0t
1n
1p
0u
#275000
1!
1L
1M
0v
0s
1q
1o
1D
1E
0F
0G
0l
08
07
16
15
#280000
0!
0L
0M
#285000
1!
1L
1M
#290000
0%
0$
0+
0!
0k
0S
0e
0L
0M
0n
0m
1r
#295000
1!
1L
1M
#300000
0!
0L
0M
#305000
1!
1L
1M
#310000
0!
0L
0M
#315000
1!
1L
1M
#320000
0!
0L
0M
#325000
1!
1L
1M
#330000
1+
0!
1e
0L
0M
1n
0r
0p
#335000
1!
1L
1M
0q
0o
0D
0E
06
05
#340000
0!
0L
0M
#345000
1!
1L
1M
#350000
0+
0!
0e
0L
0M
0n
#355000
1!
1L
1M
#360000
0!
0L
0M
#365000
1!
1L
1M
#370000
0!
0L
0M
#375000
1!
1L
1M
#380000
0!
0L
0M
#385000
1!
1L
1M
#390000
0!
0L
0M
#395000
1!
1L
1M
#400000
1#
1%
1$
0!
1R
1k
1S
0L
0M
#405000
1!
1L
1M
#410000
0!
0L
0M
#415000
1!
1L
1M
#420000
1*
0!
1Q
0L
0M
1]
1y
1_
1T
#425000
1!
1L
1M
1z
1`
1^
1A
1B
1@
11
13
12
#430000
0!
0L
0M
#435000
1!
1L
1M
#440000
1"
0%
0*
0!
1P
0k
0Q
0L
0M
0]
0y
#445000
1!
1L
1M
#450000
0!
0L
0M
#455000
1!
1L
1M
#460000
1+
0!
1e
0L
0M
1n
1u
1r
1p
#465000
1!
1L
1M
1v
1s
1q
1E
1F
1G
1l
18
17
16
#470000
0!
0L
0M
#475000
1!
1L
1M
#480000
0#
0$
0"
0+
0!
0R
0S
0P
0e
0L
0M
1t
0n
0p
0u
1m
1u
#485000
1!
1L
1M
#490000
0!
0L
0M
#495000
1!
1L
1M
#500000
1&
0!
1U
0L
0M
0\
1a
1Z
1X
1K
1]
1n
1b
19
1c
#505000
1!
1L
1M
1Y
0z
0q
1o
1d
1[
1H
1C
1D
0E
0@
0J
1\
1w
1i
0.
01
06
15
14
1/
0Z
0T
0r
1p
1V
1y
#510000
0!
0L
0M
#515000
1!
1L
1M
1z
0s
1q
0^
0[
1W
1I
0H
0A
1E
0F
1@
0t
11
07
16
02
0/
10
1T
1r
0_
1Z
0u
#520000
0!
0L
0M
#525000
1!
1L
1M
0v
1s
0`
1^
1[
1H
1A
0B
1F
0G
1t
0l
0i
0b
08
17
03
12
1/
1_
0Z
0V
1u
0m
0c
#530000
0!
0L
0M
#535000
1!
1L
1M
1v
0o
0d
1`
0[
0W
0I
0H
1B
0C
0D
1G
0w
1l
1b
0]
18
05
04
13
0/
00
0p
0a
0K
0n
0b
09
0y
1m
1c
0c
#540000
0!
0L
0M
#545000
1!
1L
1M
#550000
0!
0L
0M
#555000
1!
1L
1M
#560000
0!
0L
0M
#565000
1!
1L
1M
#570000
0!
0L
0M
#575000
1!
1L
1M
#580000
0!
0L
0M
#585000
1!
1L
1M
#590000
0!
0L
0M
#595000
1!
1L
1M
#600000
1,
1%
1#
1$
0&
0!
1O
1k
1R
1S
0U
0L
0M
0l
0X
0m
#605000
1!
1L
1M
0Y
1J
1.
#610000
0!
0L
0M
#615000
1!
1L
1M
#620000
1*
0!
1Q
0L
0M
1]
1y
#625000
1!
1L
1M
#630000
0!
0L
0M
#635000
1!
1L
1M
#640000
1"
0%
0*
0!
1P
0k
0Q
0L
0M
0]
0y
#645000
1!
1L
1M
#650000
0!
0L
0M
#655000
1!
1L
1M
#660000
1+
0!
1e
0L
0M
0t
1n
1p
#665000
1!
1L
1M
#670000
0!
0L
0M
#675000
1!
1L
1M
#680000
0#
0$
0"
0+
0!
0R
0S
0P
0e
0L
0M
1t
0n
0p
0u
1u
#685000
1!
1L
1M
#690000
0!
0L
0M
#695000
1!
1L
1M
#700000
1&
0!
1U
0L
0M
0\
1a
1Z
1X
1K
1]
1n
1b
19
1c
#705000
1!
1L
1M
1Y
0z
0q
1d
1[
1H
1C
0E
0@
0J
1\
1w
1i
0.
01
06
14
1/
0Z
0T
0r
1V
1j
1y
1m
#710000
0!
0L
0M
#715000
1!
1L
1M
1z
0s
1o
0^
0[
1W
1I
0H
0A
1D
0F
1@
0t
11
07
15
02
0/
10
1T
1p
0_
1Z
0u
#720000
0!
0L
0M
#725000
1!
1L
1M
0v
1q
0`
1^
1[
1H
1A
0B
1E
0G
0i
0b
08
16
03
12
1/
1r
1_
0Z
0V
0j
0c
0m
#730000
0!
0L
0M
#735000
1!
1L
1M
1s
0o
0d
1`
0[
0W
0I
0H
1B
0C
0D
1F
1t
0w
1b
0]
17
05
04
13
0/
00
0p
0a
0K
0t
0n
0b
09
1u
0y
1c
0u
0c
#740000
0!
0L
0M
#745000
1!
1L
1M
#750000
0!
0L
0M
#755000
1!
1L
1M
#760000
0!
0L
0M
#765000
1!
1L
1M
#770000
0!
0L
0M
#775000
1!
1L
1M
#780000
0!
0L
0M
#785000
1!
1L
1M
#790000
0!
0L
0M
#795000
1!
1L
1M
#800000
1-
0,
1%
1#
1$
0&
0!
1N
0O
1k
1R
1S
0U
0L
0M
0X
#805000
1!
1L
1M
0Y
1J
1.
#810000
0!
0L
0M
#815000
1!
1L
1M
#820000
1*
0!
1Q
0L
0M
1]
1y
#825000
1!
1L
1M
#830000
0!
0L
0M
#835000
1!
1L
1M
#840000
1"
0%
0*
0!
1P
0k
0Q
0L
0M
0]
0y
#845000
1!
1L
1M
#850000
0!
0L
0M
#855000
1!
1L
1M
#860000
1+
0!
1e
0L
0M
1n
1u
1p
#865000
1!
1L
1M
1v
1G
1l
18
#870000
0!
0L
0M
#875000
1!
1L
1M
#880000
0#
0$
0"
0+
0!
0R
0S
0P
0e
0L
0M
1t
0n
0p
0u
1m
1u
#885000
1!
1L
1M
#890000
0!
0L
0M
#895000
1!
1L
1M
#900000
1&
0!
1U
0L
0M
0\
1a
1Z
1X
1K
1]
1n
1b
19
1c
#905000
1!
1L
1M
1Y
0z
0q
1o
1d
1[
1H
1C
1D
0E
0@
0J
1\
1i
0.
01
06
15
14
1/
0Z
0T
0r
1p
1V
1x
1y
#910000
0!
0L
0M
#915000
1!
1L
1M
1z
0s
1q
0^
0[
1W
1I
0H
0A
1E
0F
1@
0t
11
07
16
02
0/
10
1T
1r
0_
1Z
0u
#920000
0!
0L
0M
#925000
1!
1L
1M
0v
1s
0`
1^
1[
1H
1A
0B
1F
0G
1t
0l
0i
0b
08
17
03
12
1/
1_
0Z
0V
0x
1u
0m
0c
0y
#930000
0!
0L
0M
#935000
1!
1L
1M
0z
1v
0o
0d
1`
0[
0W
0I
0H
1B
0C
0D
1G
0@
1l
1b
0]
01
18
05
04
13
0/
00
0T
0p
0a
0K
0n
0b
09
1m
1c
0c
#940000
0!
0L
0M
#945000
1!
1L
1M
#950000
0!
0L
0M
#955000
1!
1L
1M
#960000
0!
0L
0M
#965000
1!
1L
1M
#970000
0!
0L
0M
#975000
1!
1L
1M
#980000
0!
0L
0M
#985000
1!
1L
1M
#990000
0!
0L
0M
#995000
1!
1L
1M
#1000000
1,
1%
1#
1$
0&
0!
1O
1k
1R
1S
0U
0L
0M
1w
0l
0X
1y
0m
#1005000
1!
1L
1M
0Y
1J
1.
#1010000
0!
0L
0M
#1015000
1!
1L
1M
#1020000
1*
0!
1Q
0L
0M
1]
1T
#1025000
1!
1L
1M
1z
1@
11
#1030000
0!
0L
0M
#1035000
1!
1L
1M
#1040000
1"
0%
0*
0!
1P
0k
0Q
0L
0M
0]
#1045000
1!
1L
1M
#1050000
0!
0L
0M
#1055000
1!
1L
1M
#1060000
1+
0!
1e
0L
0M
0t
1n
1p
#1065000
1!
1L
1M
#1070000
0!
0L
0M
#1075000
1!
1L
1M
#1080000
0#
0$
0"
0+
0!
0R
0S
0P
0e
0L
0M
1t
0n
0p
0u
1u
#1085000
1!
1L
1M
#1090000
0!
0L
0M
#1095000
1!
1L
1M
#1100000
1&
0!
1U
0L
0M
0\
1a
1Z
1X
1K
1]
1n
1b
19
1c
#1105000
1!
1L
1M
1Y
0q
1d
1[
1H
1C
0E
0J
1\
1l
1i
0.
06
14
1/
0Z
0r
1V
1m
#1110000
0!
0L
0M
#1115000
1!
1L
1M
0s
1o
0[
1W
1I
0H
1D
0F
0t
07
15
0/
10
1p
1Z
0u
#1120000
0!
0L
0M
#1125000
1!
1L
1M
0v
1q
1[
1H
1E
0G
0w
0i
08
16
1/
1r
0Z
0V
0y
#1130000
0!
0L
0M
#1135000
1!
1L
1M
0z
1s
0[
0W
0I
0H
1F
0@
1t
0]
01
17
0/
00
0T
0a
0K
0t
0n
09
1u
0u
#1140000
0!
0L
0M
#1145000
1!
1L
1M
#1150000
0!
0L
0M
#1155000
1!
1L
1M
#1160000
0!
0L
0M
#1165000
1!
1L
1M
#1170000
0!
0L
0M
#1175000
1!
1L
1M
#1180000
0!
0L
0M
#1185000
1!
1L
1M
#1190000
0!
0L
0M
#1195000
1!
1L
1M
#1200000
1'
0,
1%
1#
0&
0!
1g
0O
1k
1R
0U
0L
0M
1i
0l
0X
1x
0m
1y
#1205000
1!
1L
1M
0Y
1J
1.
#1210000
0!
0L
0M
#1215000
1!
1L
1M
#1220000
1*
0!
1Q
0L
0M
0b
1]
0c
#1225000
1!
1L
1M
1z
0d
0^
0A
0C
1@
0i
11
04
02
0x
#1230000
0!
0L
0M
#1235000
1!
1L
1M
#1240000
1$
1"
0%
0*
0!
1S
1P
0k
0Q
0L
0M
0]
1T
0y
0_
#1245000
1!
1L
1M
#1250000
0!
0L
0M
#1255000
1!
1L
1M
#1260000
1+
0!
1e
0L
0M
1n
1u
#1265000
1!
1L
1M
1v
0o
0D
1G
1l
1i
18
05
1x
1y
#1270000
0!
0L
0M
#1275000
1!
1L
1M
#1280000
0#
0$
0"
0+
0!
0R
0S
0P
0e
0L
0M
1t
0n
0p
0u
1m
1u
#1285000
1!
1L
1M
#1290000
0!
0L
0M
#1295000
1!
1L
1M
#1300000
1&
0!
1U
0L
0M
0\
1a
1Z
1X
1K
1]
1n
1b
19
1c
#1305000
1!
1L
1M
1Y
0q
1o
1d
0`
1^
1[
1H
1A
0B
1C
1D
0E
0J
1\
0b
0.
06
15
14
03
12
1/
0Z
0r
1p
1_
1V
0c
#1310000
0!
0L
0M
#1315000
1!
1L
1M
0s
1q
0d
1`
0[
1W
1I
0H
1B
0C
1E
0F
0t
1b
07
16
04
13
0/
10
1r
1Z
0u
1c
#1320000
0!
0L
0M
#1325000
1!
1L
1M
0v
1s
1d
1[
1H
1C
1F
0G
1t
0l
08
17
14
1/
0Z
0V
1u
0m
#1330000
0!
0L
0M
#1335000
1!
1L
1M
1v
0o
0[
0W
0I
0H
0D
1G
1l
0]
18
05
0/
00
0p
0a
0K
0n
09
1m
#1340000
0!
0L
0M
#1345000
1!
1L
1M
#1350000
0!
0L
0M
#1355000
1!
1L
1M
#1360000
0!
0L
0M
#1365000
1!
1L
1M
#1370000
0!
0L
0M
#1375000
1!
1L
1M
#1380000
0!
0L
0M
#1385000
1!
1L
1M
#1390000
0!
0L
0M
#1395000
1!
1L
1M
#1400000
1(
0'
1%
1#
0&
0!
1h
0g
1k
1R
0U
0L
0M
0i
0X
0x
0y
#1405000
1!
1L
1M
0Y
1J
1.
#1410000
0!
0L
0M
#1415000
1!
1L
1M
#1420000
1*
0!
1Q
0L
0M
0b
1]
1y
0T
0c
#1425000
1!
1L
1M
0d
0^
0A
0C
1i
04
02
1x
#1430000
0!
0L
0M
#1435000
1!
1L
1M
#1440000
1$
1"
0%
0*
0!
1S
1P
0k
0Q
0L
0M
0]
1T
0_
#1445000
1!
1L
1M
#1450000
0!
0L
0M
#1455000
1!
1L
1M
#1460000
1+
0!
1e
0L
0M
0t
1n
1p
0m
#1465000
1!
1L
1M
#1470000
0!
0L
0M
#1475000
1!
1L
1M
#1480000
0#
0$
0"
0+
0!
0R
0S
0P
0e
0L
0M
1t
0n
0p
0u
1m
1u
#1485000
1!
1L
1M
#1490000
0!
0L
0M
#1495000
1!
1L
1M
#1500000
1&
0!
1U
0L
0M
0\
1a
1Z
1X
1K
1]
1n
1b
19
1c
#1505000
1!
1L
1M
1Y
0q
1o
1d
0`
1^
1[
1H
1A
0B
1C
1D
0E
0J
1\
0i
0b
0.
06
15
14
03
12
1/
0Z
0r
1p
1_
1V
0x
0c
0y
#1510000
0!
0L
0M
#1515000
1!
1L
1M
0z
0s
1q
0d
1`
0[
1W
1I
0H
1B
0C
1E
0F
0@
0t
1i
1b
01
07
16
04
13
0/
10
0T
1r
1Z
1x
0u
1c
1y
#1520000
0!
0L
0M
#1525000
1!
1L
1M
1z
0v
1s
1d
0^
1[
1H
0A
1C
1F
0G
1@
1t
0l
11
08
17
14
02
1/
1T
0_
0Z
0V
1u
0m
#1530000
0!
0L
0M
#1535000
1!
1L
1M
1v
0o
0`
1^
0[
0W
0I
0H
1A
0B
0D
1G
1l
0i
0b
0]
18
05
03
12
0/
00
0p
1_
0a
0K
0x
0n
1b
09
1m
0c
0y
1c
#1540000
0!
0L
0M
#1545000
1!
1L
1M
#1550000
0!
0L
0M
#1555000
1!
1L
1M
#1560000
0!
0L
0M
#1565000
1!
1L
1M
#1570000
0!
0L
0M
#1575000
1!
1L
1M
#1580000
0!
0L
0M
#1585000
1!
1L
1M
#1590000
0!
0L
0M
#1595000
1!
1L
1M
#1600000
1'
1%
1#
0&
0!
1g
1k
1R
0U
0L
0M
1i
0X
1x
1y
#1605000
1!
1L
1M
0Y
1J
1.
#1610000
0!
0L
0M
#1615000
1!
1L
1M
#1620000
1*
0!
1Q
0L
0M
0b
1]
0T
0c
#1625000
1!
1L
1M
0d
1`
0^
0A
1B
0C
04
13
02
#1630000
0!
0L
0M
#1635000
1!
1L
1M
#1640000
1$
1"
0%
0*
0!
1S
1P
0k
0Q
0L
0M
0]
1T
0_
#1645000
1!
1L
1M
#1650000
0!
0L
0M
#1655000
1!
1L
1M
#1660000
1+
0!
1e
0L
0M
0t
1n
1p
0m
#1665000
1!
1L
1M
#1670000
0!
0L
0M
#1675000
1!
1L
1M
#1680000
0#
0$
0"
0+
0!
0R
0S
0P
0e
0L
0M
1t
0n
0p
0u
1m
1u
#1685000
1!
1L
1M
#1690000
0!
0L
0M
#1695000
1!
1L
1M
#1700000
1&
0!
1U
0L
0M
0\
1a
1Z
1X
1K
1]
1n
1b
19
1c
#1705000
1!
1L
1M
1Y
0q
1o
1d
0`
1^
1[
1H
1A
0B
1C
1D
0E
0J
1\
0b
0.
06
15
14
03
12
1/
0Z
0r
1p
1_
1V
0c
#1710000
0!
0L
0M
#1715000
1!
1L
1M
0s
1q
0d
1`
0[
1W
1I
0H
1B
0C
1E
0F
0t
1b
07
16
04
13
0/
10
1r
1Z
0u
1c
#1720000
0!
0L
0M
#1725000
1!
1L
1M
0v
1s
1d
1[
1H
1C
1F
0G
1t
0l
08
17
14
1/
0Z
0V
1u
0m
#1730000
0!
0L
0M
#1735000
1!
1L
1M
1v
0o
0[
0W
0I
0H
0D
1G
1l
0]
18
05
0/
00
0p
0a
0K
0n
09
1m
#1740000
0!
0L
0M
#1745000
1!
1L
1M
#1750000
0!
0L
0M
#1755000
1!
1L
1M
#1760000
0!
0L
0M
#1765000
1!
1L
1M
#1770000
0!
0L
0M
#1775000
1!
1L
1M
#1780000
0!
0L
0M
#1785000
1!
1L
1M
#1790000
0!
0L
0M
#1795000
1!
1L
1M
#1800000
1)
0(
0'
1%
1#
0&
0!
1f
0h
0g
1k
1R
0U
0L
0M
0x
0X
0y
#1805000
1!
1L
1M
0Y
1J
1.
#1810000
0!
0L
0M
#1815000
1!
1L
1M
#1820000
1*
0!
1Q
0L
0M
0b
1]
1y
0T
0c
#1825000
1!
1L
1M
0d
0^
0A
0C
0i
04
02
1x
#1830000
0!
0L
0M
#1835000
1!
1L
1M
#1840000
1$
1"
0%
0*
0!
1S
1P
0k
0Q
0L
0M
0]
1T
0_
#1845000
1!
1L
1M
#1850000
0!
0L
0M
#1855000
1!
1L
1M
#1860000
1+
0!
1e
0L
0M
0t
1n
1p
0m
#1865000
1!
1L
1M
#1870000
0!
0L
0M
#1875000
1!
1L
1M
#1880000
0#
0$
0"
0+
0!
0R
0S
0P
0e
0L
0M
1t
0n
0p
0u
1m
1u
#1885000
1!
1L
1M
#1890000
0!
0L
0M
#1895000
1!
1L
1M
#1900000
1&
0!
1U
0L
0M
0\
1a
1Z
1X
1K
1]
1n
1b
19
1c
#1905000
1!
1L
1M
1Y
0q
1o
1d
0`
1^
1[
1H
1A
0B
1C
1D
0E
0J
1\
1i
0b
0.
06
15
14
03
12
1/
0Z
0r
1p
1_
1V
0x
0c
0y
#1910000
0!
0L
0M
#1915000
1!
1L
1M
0z
0s
1q
0d
1`
0[
1W
1I
0H
1B
0C
1E
0F
0@
0t
0i
1b
01
07
16
04
13
0/
10
0T
1r
1Z
1x
0u
1c
1y
#1920000
0!
0L
0M
#1925000
1!
1L
1M
1z
0v
1s
1d
0^
1[
1H
0A
1C
1F
0G
1@
1t
0l
11
08
17
14
02
1/
1T
0_
0Z
0V
1u
0m
#1930000
0!
0L
0M
#1935000
1!
1L
1M
1v
0o
0`
1^
0[
0W
0I
0H
1A
0B
0D
1G
1l
1i
0b
0]
18
05
03
12
0/
00
0p
1_
0a
0K
0x
0n
1b
09
1m
0c
0y
1c
#1940000
0!
0L
0M
#1945000
1!
1L
1M
#1950000
0!
0L
0M
#1955000
1!
1L
1M
#1960000
0!
0L
0M
#1965000
1!
1L
1M
#1970000
0!
0L
0M
#1975000
1!
1L
1M
#1980000
0!
0L
0M
#1985000
1!
1L
1M
#1990000
0!
0L
0M
#1995000
1!
1L
1M
#2000000
1'
1%
1#
0&
0!
1g
1k
1R
0U
0L
0M
0X
#2005000
1!
1L
1M
0Y
1J
1.
#2010000
0!
0L
0M
#2015000
1!
1L
1M
#2020000
1*
0!
1Q
0L
0M
0b
1]
1y
0T
0c
#2025000
1!
1L
1M
0d
1`
0^
0A
1B
0C
04
13
02
#2030000
0!
0L
0M
#2035000
1!
1L
1M
#2040000
1$
1"
0%
0*
0!
1S
1P
0k
0Q
0L
0M
0]
1T
0y
0_
#2045000
1!
1L
1M
#2050000
0!
0L
0M
#2055000
1!
1L
1M
#2060000
1+
0!
1e
0L
0M
0t
1n
1p
0m
#2065000
1!
1L
1M
#2070000
0!
0L
0M
#2075000
1!
1L
1M
#2080000
0#
0$
0"
0+
0!
0R
0S
0P
0e
0L
0M
1t
0n
0p
0u
1m
1u
#2085000
1!
1L
1M
#2090000
0!
0L
0M
#2095000
1!
1L
1M
#2100000
0!
0L
0M
#2105000
1!
1L
1M
#2110000
1&
0!
1U
0L
0M
0\
1a
1Z
1X
1K
1]
1n
1b
19
1c
#2115000
1!
1L
1M
1Y
0z
0q
1o
1d
0`
1^
1[
1H
1A
0B
1C
1D
0E
0@
0J
1\
0b
0.
01
06
15
14
03
12
1/
0Z
0T
0r
1p
1_
1V
0c
#2120000
0!
0L
0M
#2125000
1!
1L
1M
0s
1q
0d
1`
0^
0[
1W
1I
0H
0A
1B
0C
1E
0F
0t
1b
07
16
04
13
02
0/
10
1r
0_
1Z
0u
1c
#2130000
0!
0L
0M
#2135000
1!
1L
1M
0v
1s
1d
0`
1[
1H
0B
1C
1F
0G
1t
0l
0b
08
17
14
03
1/
0Z
0V
1u
0m
0c
#2140000
0!
0L
0M
#2145000
1!
1L
1M
1v
0o
0d
0[
0W
0I
0H
0C
0D
1G
1l
0]
18
05
04
0/
00
0p
0a
0K
0n
09
1m
#2150000
0!
0L
0M
#2155000
1!
1L
1M
#2160000
0!
0L
0M
#2165000
1!
1L
1M
#2170000
0!
0L
0M
#2175000
1!
1L
1M
#2180000
0!
0L
0M
#2185000
1!
1L
1M
#2190000
0!
0L
0M
#2195000
1!
1L
1M
#2200000
1(
0'
1%
1#
0&
0!
1h
0g
1k
1R
0U
0L
0M
0X
#2205000
1!
1L
1M
0Y
1J
1.
#2210000
0!
0L
0M
#2215000
1!
1L
1M
#2220000
1*
0!
1Q
0L
0M
1]
1y
1_
#2225000
1!
1L
1M
1z
1`
1B
1@
11
13
#2230000
0!
0L
0M
#2235000
1!
1L
1M
#2240000
1$
1"
0%
0*
0!
1S
1P
0k
0Q
0L
0M
0]
1T
0y
0_
#2245000
1!
1L
1M
#2250000
0!
0L
0M
#2255000
1!
1L
1M
#2260000
1+
0!
1e
0L
0M
0t
1n
1p
0m
#2265000
1!
1L
1M
#2270000
0!
0L
0M
#2275000
1!
1L
1M
#2280000
0#
0$
0"
0+
0!
0R
0S
0P
0e
0L
0M
1t
0n
0p
0u
1m
1u
#2285000
1!
1L
1M
#2290000
0!
0L
0M
#2295000
1!
1L
1M
#2300000
1&
0!
1U
0L
0M
0\
1a
1Z
1X
1K
1]
1n
1b
19
1c
#2305000
1!
1L
1M
1Y
0z
0q
1o
1d
0`
1^
1[
1H
1A
0B
1C
1D
0E
0@
0J
1\
0i
0b
0.
01
06
15
14
03
12
1/
0Z
0T
0r
1p
1_
1V
1x
0c
1y
#2310000
0!
0L
0M
#2315000
1!
1L
1M
1z
0s
1q
0d
1`
0^
0[
1W
1I
0H
0A
1B
0C
1E
0F
1@
0t
1i
1b
11
07
16
04
13
02
0/
10
1T
1r
0_
1Z
0x
0u
1c
0y
#2320000
0!
0L
0M
#2325000
1!
1L
1M
0z
0v
1s
1d
0`
1^
1[
1H
1A
0B
1C
1F
0G
0@
1t
0l
0b
01
08
17
14
03
12
1/
0T
1_
0Z
0V
1u
0m
0c
#2330000
0!
0L
0M
#2335000
1!
1L
1M
1v
0o
0d
1`
0^
0[
0W
0I
0H
0A
1B
0C
0D
1G
1l
1b
0]
18
05
04
13
02
0/
00
0p
0_
0a
0K
0n
0b
09
1m
1c
0c
#2340000
0!
0L
0M
#2345000
1!
1L
1M
#2350000
0!
0L
0M
#2355000
1!
1L
1M
#2360000
0!
0L
0M
#2365000
1!
1L
1M
#2370000
0!
0L
0M
#2375000
1!
1L
1M
#2380000
0!
0L
0M
#2385000
1!
1L
1M
#2390000
0!
0L
0M
#2395000
1!
1L
1M
#2400000
1'
1%
1#
0&
0!
1g
1k
1R
0U
0L
0M
0X
#2405000
1!
1L
1M
0Y
1J
1.
#2410000
0!
0L
0M
#2415000
1!
1L
1M
#2420000
1*
0!
1Q
0L
0M
1]
1y
1_
#2425000
1!
1L
1M
1z
1@
11
#2430000
0!
0L
0M
#2435000
1!
1L
1M
#2440000
1$
1"
0%
0*
0!
1S
1P
0k
0Q
0L
0M
0]
1T
0y
0_
#2445000
1!
1L
1M
#2450000
0!
0L
0M
#2455000
1!
1L
1M
#2460000
1+
0!
1e
0L
0M
0t
1n
1p
0m
#2465000
1!
1L
1M
#2470000
0!
0L
0M
#2475000
1!
1L
1M
#2480000
0#
0$
0"
0+
0!
0R
0S
0P
0e
0L
0M
1t
0n
0p
0u
1m
1u
#2485000
1!
1L
1M
#2490000
0!
0L
0M
#2495000
1!
1L
1M
#2500000
1&
0!
1U
0L
0M
0\
1a
1Z
1X
1K
1]
1n
1b
19
1c
#2505000
1!
1L
1M
1Y
0z
0q
1o
1d
0`
1^
1[
1H
1A
0B
1C
1D
0E
0@
0J
1\
0b
0.
01
06
15
14
03
12
1/
0Z
0T
0r
1p
1_
1V
0c
#2510000
0!
0L
0M
#2515000
1!
1L
1M
0s
1q
0d
1`
0^
0[
1W
1I
0H
0A
1B
0C
1E
0F
0t
1b
07
16
04
13
02
0/
10
1r
0_
1Z
0u
1c
#2520000
0!
0L
0M
#2525000
1!
1L
1M
0v
1s
1d
0`
1[
1H
0B
1C
1F
0G
1t
0l
0b
08
17
14
03
1/
0Z
0V
1u
0m
0c
