lab2/Submit_lab2/project_files/simulation/qsim/Lab2.msim.vcd
$comment
	File created using the following command:
		vcd file Lab2.msim.vcd -direction
$end
$date
	Thu Sep 23 18:13:24 2021
$end
$version
	ModelSim Version 10.5b
$end
$timescale
	1ps
$end

$scope module Lab2_vlg_vec_tst $end
$var reg 1 ! CLOCK $end
$var reg 1 " DIN0 $end
$var reg 1 # DIN1 $end
$var reg 1 $ FETCH $end
$var reg 1 % LDSBR $end
$var reg 1 & SAR0 $end
$var reg 1 ' SAR1 $end
$var reg 1 ( STORE $end
$var wire 1 ) Q00 $end
$var wire 1 * Q01 $end
$var wire 1 + Q02 $end
$var wire 1 , Q03 $end
$var wire 1 - Q10 $end
$var wire 1 . Q11 $end
$var wire 1 / Q12 $end
$var wire 1 0 Q13 $end
$var wire 1 1 SBR0 $end
$var wire 1 2 SBR1 $end

$scope module i1 $end
$var wire 1 3 gnd $end
$var wire 1 4 vcc $end
$var wire 1 5 unknown $end
$var tri1 1 6 devclrn $end
$var tri1 1 7 devpor $end
$var tri1 1 8 devoe $end
$var wire 1 9 SBR1~output_o $end
$var wire 1 : SBR0~output_o $end
$var wire 1 ; Q00~output_o $end
$var wire 1 < Q01~output_o $end
$var wire 1 = Q02~output_o $end
$var wire 1 > Q03~output_o $end
$var wire 1 ? Q10~output_o $end
$var wire 1 @ Q11~output_o $end
$var wire 1 A Q12~output_o $end
$var wire 1 B Q13~output_o $end
$var wire 1 C CLOCK~input_o $end
$var wire 1 D CLOCK~inputclkctrl_outclk $end
$var wire 1 E LDSBR~input_o $end
$var wire 1 F FETCH~input_o $end
$var wire 1 G inst36|16~0_combout $end
$var wire 1 H inst36|16~feeder_combout $end
$var wire 1 I inst36|16~q $end
$var wire 1 J SAR0~input_o $end
$var wire 1 K SAR1~input_o $end
$var wire 1 L inst36|15~0_combout $end
$var wire 1 M inst36|15~q $end
$var wire 1 N inst8|sub|108~0_combout $end
$var wire 1 O 3-1mux|10~0_combout $end
$var wire 1 P DIN1~input_o $end
$var wire 1 Q STORE~input_o $end
$var wire 1 R 2-1mux|25~2_combout $end
$var wire 1 S inst1|41~feeder_combout $end
$var wire 1 T inst1|41~q $end
$var wire 1 U inst1|40~feeder_combout $end
$var wire 1 V inst1|40~q $end
$var wire 1 W inst1|39~feeder_combout $end
$var wire 1 X inst1|39~q $end
$var wire 1 Y inst1|38~feeder_combout $end
$var wire 1 Z inst1|38~q $end
$var wire 1 [ 3-1mux|10~1_combout $end
$var wire 1 \ 3-1mux|9~0_combout $end
$var wire 1 ] SBR_reg|10~q $end
$var wire 1 ^ DIN0~input_o $end
$var wire 1 _ 2-1mux|22~2_combout $end
$var wire 1 ` inst|41~feeder_combout $end
$var wire 1 a inst|41~q $end
$var wire 1 b inst|40~feeder_combout $end
$var wire 1 c inst|40~q $end
$var wire 1 d inst|39~feeder_combout $end
$var wire 1 e inst|39~q $end
$var wire 1 f inst|38~feeder_combout $end
$var wire 1 g inst|38~q $end
$var wire 1 h 3-1mux|9~1_combout $end
$var wire 1 i SBR_reg|9~q $end
$upscope $end
$upscope $end
$enddefinitions $end
#0
$dumpvars
1!
0"
1#
0$
1%
0&
0'
0(
0)
0*
0+
0,
0-
0.
0/
00
01
02
03
14
x5
16
17
18
09
0:
0;
0<
0=
0>
0?
0@
0A
0B
1C
1D
1E
0F
1G
1H
0I
0J
0K
1L
0M
0N
1O
1P
0Q
0R
0S
0T
0U
0V
0W
0X
0Y
0Z
1[
1\
0]
0^
0_
0`
0a
0b
0c
0d
0e
0f
0g
0h
0i
$end
#5000
0!
0C
0D
1I
1N
0G
0H
#10000
1!
1C
1D
1]
19
12
#15000
0!
0C
0D
0I
0N
1G
1H
1M
1N
0L
#20000
1!
1C
1D
#25000
0!
0C
0D
1I
0G
0H
#30000
0%
1!
0E
1C
1D
0\
0O
0[
#35000
0!
0C
0D
0I
1G
1H
0M
0N
1L
#40000
0#
1%
1!
0P
1E
1C
1D
1\
1O
#45000
0!
0C
0D
1I
1N
0G
0H
#50000
1!
1C
1D
0]
09
02
#55000
0!
0C
0D
0I
0N
1G
1H
1M
1N
0L
#60000
1!
1C
1D
#65000
0!
0C
0D
1I
0G
0H
#70000
0%
1!
0E
1C
1D
0\
0O
#75000
0!
0C
0D
0I
1G
1H
0M
0N
1L
#80000
1"
1%
1!
1^
1E
1C
1D
1\
1O
1h
#85000
0!
0C
0D
1I
1N
0G
0H
#90000
1!
1C
1D
1i
1:
11
#95000
0!
0C
0D
0I
0N
1G
1H
1M
1N
0L
#100000
1!
1C
1D
#105000
0!
0C
0D
1I
0G
0H
#110000
0%
1!
0E
1C
1D
0\
0O
0h
#115000
0!
0C
0D
0I
1G
1H
0M
0N
1L
#120000
1#
1%
1!
1P
1E
1C
1D
1\
1O
1h
1[
#125000
0!
0C
0D
1I
1N
0G
0H
#130000
1!
1C
1D
1]
19
12
#135000
0!
0C
0D
0I
0N
1G
1H
1M
1N
0L
#140000
1!
1C
1D
#145000
0!
0C
0D
1I
0G
0H
#150000
0%
1!
0E
1C
1D
0\
0O
0h
0[
#155000
0!
0C
0D
0I
1G
1H
0M
0N
1L
#160000
0"
0#
1!
0^
0P
1C
1D
#165000
0!
0C
0D
1I
1N
0G
0H
#170000
1!
1C
1D
#175000
0!
0C
0D
0I
0N
1G
1H
1M
1N
0L
#180000
1!
1C
1D
#185000
0!
0C
0D
1I
0G
0H
#190000
1&
1'
1!
1J
1K
1C
1D
0N
#195000
0!
0C
0D
0I
1N
1G
1H
0M
1L
#200000
1(
1!
1Q
1C
1D
#205000
0!
0C
0D
1I
0G
0H
#210000
1!
1C
1D
#215000
0!
0C
0D
0I
1G
1H
1M
0L
#220000
1!
1C
1D
#225000
0!
0C
0D
1I
0N
0G
1_
1R
0H
1`
1S
#230000
1!
1C
1D
1a
1T
1?
1;
1)
1-
1b
1U
#235000
0!
0C
0D
0I
1N
1G
0_
0R
1H
0`
0S
0M
1L
#240000
0(
1!
0Q
1C
1D
1c
0a
1V
0T
0?
1@
0;
1<
1*
0)
1.
0-
1d
0b
1W
0U
#245000
0!
0C
0D
1I
0G
0H
#250000
1%
1"
1!
1E
1^
1C
1D
1\
1O
1h
1e
0c
1X
0V
0@
1A
0<
1=
1+
0*
1/
0.
1f
0d
1Y
0W
#255000
0!
0C
0D
0I
1G
1H
1M
0L
#260000
1!
1C
1D
1g
0e
0]
1Z
0X
0A
1B
09
0=
1>
1_
1R
1,
0+
02
10
0/
0f
0Y
1`
1S
#265000
0!
0C
0D
1I
0N
0G
0H
#270000
1!
1C
1D
0g
1a
0Z
1T
1?
0B
1;
0>
0_
0R
0,
1)
00
1-
1b
1U
0`
0S
#275000
0!
0C
0D
0I
1N
1G
1H
0M
1L
#280000
0'
0%
1!
0K
0E
1C
1D
0\
0O
0h
1c
0a
1V
0T
0?
1@
0;
1<
1*
0)
1.
0-
1d
0b
1W
0U
#285000
0!
0C
0D
1I
0G
0H
#290000
1(
0"
1!
1Q
0^
1C
1D
1e
0c
1X
0V
0@
1A
0<
1=
1+
0*
1/
0.
1f
0d
1Y
0W
#295000
0!
0C
0D
0I
1G
1H
1M
0N
0L
1_
1`
#300000
1!
1C
1D
1g
0e
1a
1Z
0X
0A
1B
1;
0=
1>
1,
0+
1)
10
0/
1h
0f
1b
1[
0Y
#305000
0!
0C
0D
1I
1N
0G
1R
0H
1S
#310000
1!
1C
1D
0g
1c
0Z
1T
1?
0B
1<
0>
0_
0R
0,
1*
00
1-
0h
1d
0[
1U
0`
0S
#315000
0!
0C
0D
0I
0N
1G
1_
1H
1`
0M
1N
1L
0_
0`
#320000
1!
1C
1D
1e
0a
1V
0T
0?
1@
0;
1=
1+
0)
1.
0-
1f
0b
1W
0U
#325000
0!
0C
0D
1I
0G
0H
#330000
0(
1!
0Q
1C
1D
1g
0c
1X
0V
0@
1A
0<
1>
1_
1,
0*
1/
0.
1h
0d
1Y
0W
1`
#335000
0!
0C
0D
0I
1G
1H
1M
0N
0L
#340000
1%
1!
1E
1C
1D
1\
1O
0h
0e
1a
1Z
0X
0A
1B
1;
0=
1R
0+
1)
10
0/
0f
1b
0Y
1S
#345000
0!
0C
0D
1I
1N
0G
0H
#350000
1!
1C
1D
0i
0g
1c
0Z
1T
1?
0B
1<
0>
0:
0_
0R
01
0,
1*
00
1-
1d
1U
0`
0S
#355000
0!
0C
0D
0I
0N
1G
1H
0M
1N
1L
#360000
1!
1C
1D
1e
0a
1V
0T
0?
1@
0;
1=
1+
0)
1.
0-
1f
0b
1W
0U
#365000
0!
0C
0D
1I
0G
0H
#370000
0&
0%
1!
0J
0E
1C
1D
0\
0O
1g
0c
1X
0V
0@
1A
0<
1>
1_
1,
0*
1/
0.
1h
0d
1Y
0W
1`
#375000
0!
0C
0D
0I
0N
1G
1H
1M
1N
0L
#380000
1(
1!
1Q
1C
1D
0e
1a
1Z
0X
0A
1B
1;
0=
1R
0+
1)
10
0/
0f
1b
1[
0Y
1S
#385000
0!
0C
0D
1I
0G
0H
#390000
1!
1C
1D
0g
1c
0Z
1T
1?
0B
1<
0>
0_
0R
0,
1*
00
1-
0h
1d
0[
1U
0`
0S
#395000
0!
0C
0D
0I
1G
1H
0M
0N
1L
#400000
1!
1C
1D
1e
0a
1V
0T
0?
1@
0;
1=
1+
0)
1.
0-
1f
0b
1W
0U
#405000
0!
0C
0D
1I
1N
0G
0H
#410000
1!
1C
1D
1g
0c
1X
0V
0@
1A
0<
1>
1_
1,
0*
1/
0.
1h
0d
1Y
0W
1`
#415000
0!
0C
0D
0I
0N
1G
0_
1H
0`
1M
1N
0L
1_
1`
#420000
0(
1!
0Q
1C
1D
0e
1a
1Z
0X
0A
1B
1;
0=
1R
0+
1)
10
0/
0f
1b
1[
0Y
1S
#425000
0!
0C
0D
1I
0G
0H
#430000
1#
1%
1!
1P
1E
1C
1D
1\
1O
0[
0h
1[
0g
1c
0Z
1T
1?
0B
1<
0>
0_
0R
0,
1*
00
1-
1d
1U
0`
0S
#435000
0!
0C
0D
0I
1G
1H
0M
0N
1L
#440000
1!
1C
1D
1e
0a
1]
1V
0T
0?
1@
19
0;
1=
1+
0)
12
1.
0-
1f
0b
1W
0U
#445000
0!
0C
0D
1I
1N
0G
0H
#450000
1!
1C
1D
1g
0c
1X
0V
0@
1A
0<
1>
1_
1,
0*
1/
0.
0d
1Y
0W
1`
#455000
0!
0C
0D
0I
0N
1G
1H
1M
1N
0L
#460000
1'
0%
1!
1K
0E
1C
1D
0\
0O
1h
0[
0e
1a
1Z
0X
0A
1B
1;
0=
1R
0+
1)
10
0/
0f
1b
1[
0Y
1S
#465000
0!
0C
0D
1I
0G
0H
#470000
1(
0#
1!
1Q
0P
1C
1D
0g
1c
0Z
1T
1?
0B
1<
0>
0_
0R
0,
1*
00
1-
0h
1d
0[
1U
0`
0S
#475000
0!
0C
0D
0I
1G
1H
0M
1L
#480000
1!
1C
1D
1e
0a
1V
0T
0?
1@
0;
1=
1+
0)
1.
0-
1f
0b
1W
0U
#485000
0!
0C
0D
1I
0N
0G
1R
0H
1S
#490000
1!
1C
1D
1g
0c
1X
0V
1T
1?
0@
1A
0<
1>
1,
0*
1/
0.
1-
1h
0d
1Y
0W
1U
#495000
0!
0C
0D
0I
1N
1G
1_
0R
1H
1`
0S
1M
0L
#500000
1!
1C
1D
0e
1a
1Z
0X
1V
0T
0?
1@
0A
1B
1;
0=
1R
0+
1)
10
0/
1.
0-
0f
1b
1[
0Y
1W
0U
1S
#505000
0!
0C
0D
1I
0G
0H
#510000
0(
1!
0Q
1C
1D
0g
1c
0Z
1X
0V
1T
1?
0@
1A
0B
1<
0>
0_
0R
0,
1*
00
1/
0.
1-
0h
1d
0[
1Y
0W
1U
0`
0S
#515000
0!
0C
0D
0I
1G
1H
0M
1L
#520000
1!
1C
1D
1e
0a
1Z
0X
1V
0T
0?
1@
0A
1B
0;
1=
1R
1+
0)
10
0/
1.
0-
1f
0b
1[
0Y
1W
0U
1S
#525000
0!
0C
0D
1I
0N
0G
0H
#530000
1!
1C
1D
1g
0c
0Z
1X
0V
1T
1?
0@
1A
0B
0<
1>
1_
0R
1,
0*
00
1/
0.
1-
1h
0d
0[
1Y
0W
1U
1`
0S
#535000
0!
0C
0D
0I
1N
1G
1H
1M
0L
#540000
1!
1C
1D
0e
1a
1Z
0X
1V
0T
0?
1@
0A
1B
1;
0=
1R
0+
1)
10
0/
1.
0-
0f
1b
1[
0Y
1W
0U
1S
#545000
0!
0C
0D
1I
0G
0H
#550000
0'
1!
0K
1C
1D
0g
1c
0Z
1X
0V
1T
1?
0@
1A
0B
1<
0>
0_
0R
0,
1*
00
1/
0.
1-
0h
1d
0[
1Y
0W
1U
0`
0S
#555000
0!
0C
0D
0I
1G
1H
0M
0N
1L
#560000
1!
1C
1D
1e
0a
1Z
0X
1V
0T
0?
1@
0A
1B
0;
1=
1R
1+
0)
10
0/
1.
0-
1f
0b
1[
0Y
1W
0U
1S
#565000
0!
0C
0D
1I
1N
0G
0H
#570000
1!
1C
1D
1g
0c
0Z
1X
0V
1T
1?
0@
1A
0B
0<
1>
1_
0R
1,
0*
00
1/
0.
1-
1h
0d
0[
1Y
0W
1U
1`
0S
#575000
0!
0C
0D
0I
0N
1G
1H
1M
1N
0L
#580000
1!
1C
1D
0e
1a
1Z
0X
1V
0T
0?
1@
0A
1B
1;
0=
1R
0+
1)
10
0/
1.
0-
0f
1b
1[
0Y
1W
0U
1S
#585000
0!
0C
0D
1I
0G
0H
#590000
1!
1C
1D
0g
1c
0Z
1X
0V
1T
1?
0@
1A
0B
1<
0>
0_
0R
0,
1*
00
1/
0.
1-
0h
1d
0[
1Y
0W
1U
0`
0S
#595000
0!
0C
0D
0I
1G
1H
0M
0N
1L
#600000
1!
1C
1D
1e
0a
1Z
0X
1V
0T
0?
1@
0A
1B
0;
1=
1R
1+
0)
10
0/
1.
0-
1f
0b
1[
0Y
1W
0U
1S
#605000
0!
0C
0D
1I
1N
0G
0H
#610000
1!
1C
1D
1g
0c
0Z
1X
0V
1T
1?
0@
1A
0B
0<
1>
1_
0R
1,
0*
00
1/
0.
1-
1h
0d
0[
1Y
0W
1U
1`
0S
#615000
0!
0C
0D
0I
0N
1G
1H
1M
1N
0L
#620000
1!
1C
1D
0e
1a
1Z
0X
1V
0T
0?
1@
0A
1B
1;
0=
1R
0+
1)
10
0/
1.
0-
0f
1b
1[
0Y
1W
0U
1S
#625000
0!
0C
0D
1I
0G
0H
#630000
1&
1'
1!
1J
1K
1C
1D
0N
0g
1c
0Z
1X
0V
1T
1?
0@
1A
0B
1<
0>
0_
0R
0,
1*
00
1/
0.
1-
0h
1d
0[
1Y
0W
1U
0`
0S
#635000
0!
0C
0D
0I
1N
1G
1H
0M
1L
#640000
1$
1!
1F
1C
1D
1e
0a
1Z
0X
1V
0T
0?
1@
0A
1B
0;
1=
1R
1+
0)
10
0/
1.
0-
1f
0b
1[
0Y
1W
0U
1S
#645000
0!
0C
0D
1I
0G
0H
#650000
1!
1C
1D
1g
0c
0Z
1X
0V
1T
1?
0@
1A
0B
0<
1>
1_
0R
1,
0*
00
1/
0.
1-
1h
0d
0[
1Y
0W
1U
1`
0S
#655000
0!
0C
0D
0I
1G
1H
1M
0L
#660000
1!
1C
1D
0e
1a
1Z
0X
1V
0T
0?
1@
0A
1B
1;
0=
1R
0+
1)
10
0/
1.
0-
0f
1b
1[
0Y
1W
0U
1S
#665000
0!
0C
0D
1I
0N
0G
1\
0H
#670000
1!
1C
1D
1i
0g
1c
0Z
1X
0V
1T
1?
0@
1A
0B
1<
0>
1:
0_
0R
11
0,
1*
00
1/
0.
1-
0h
1d
0[
1Y
0W
1U
0`
0S
#675000
0!
0C
0D
0I
1N
1G
0\
1H
0M
1L
#680000
0'
0$
1!
0K
0F
1C
1D
1e
0a
1Z
0X
1V
0T
0?
1@
0A
1B
0;
1=
1R
1+
0)
10
0/
1.
0-
1f
0b
1[
0Y
1W
0U
1S
#685000
0!
0C
0D
1I
0G
0H
#690000
1$
1!
1F
1C
1D
1g
0c
0Z
1X
0V
1T
1?
0@
1A
0B
0<
1>
1_
0R
1,
0*
00
1/
0.
1-
1h
0d
0[
1Y
0W
1U
1`
0S
#695000
0!
0C
0D
0I
1G
1H
1M
0N
0L
1\
#700000
1!
1C
1D
0e
1a
0]
1Z
0X
1V
0T
0?
1@
0A
1B
09
1;
0=
1R
0+
1)
02
10
0/
1.
0-
0f
1b
1[
0Y
1W
0U
1S
#705000
0!
0C
0D
1I
1N
0G
0\
0H
#710000
1!
1C
1D
0g
1c
0Z
1X
0V
1T
1?
0@
1A
0B
1<
0>
0_
0R
0,
1*
00
1/
0.
1-
0h
1d
0[
1Y
0W
1U
0`
0S
#715000
0!
0C
0D
0I
0N
1G
1\
1H
0M
1N
1L
0\
#720000
1!
1C
1D
1e
0a
1Z
0X
1V
0T
0?
1@
0A
1B
0;
1=
1R
1+
0)
10
0/
1.
0-
1f
0b
1[
0Y
1W
0U
1S
#725000
0!
0C
0D
1I
0G
0H
#730000
0&
0$
1!
0J
0F
1C
1D
1g
0c
0Z
1X
0V
1T
1?
0@
1A
0B
0<
1>
1_
0R
1,
0*
00
1/
0.
1-
1h
0d
0[
1Y
0W
1U
1`
0S
#735000
0!
0C
0D
0I
0N
1G
1H
1M
1N
0L
#740000
1$
1!
1F
1C
1D
0e
1a
1Z
0X
1V
0T
0?
1@
0A
1B
1;
0=
1R
0+
1)
10
0/
1.
0-
0f
1b
1[
0Y
1W
0U
1S
#745000
0!
0C
0D
1I
0G
0H
#750000
1!
1C
1D
0g
1c
0Z
1X
0V
1T
1?
0@
1A
0B
1<
0>
0_
0R
0,
1*
00
1/
0.
1-
0h
1d
0[
1Y
0W
1U
0`
0S
#755000
0!
0C
0D
0I
1G
1H
0M
0N
1L
1\
#760000
1!
1C
1D
0i
1e
0a
1Z
0X
1V
0T
0?
1@
0A
1B
0;
1=
0:
1R
01
1+
0)
10
0/
1.
0-
1f
0b
1[
0Y
1W
0U
1S
#765000
0!
0C
0D
1I
1N
0G
0\
0H
#770000
1!
1C
1D
1g
0c
0Z
1X
0V
1T
1?
0@
1A
0B
0<
1>
1_
0R
1,
0*
00
1/
0.
1-
1h
0d
0[
1Y
0W
1U
1`
0S
#775000
0!
0C
0D
0I
0N
1G
1\
1H
1M
1N
0L
0\
#780000
1'
0$
1!
1K
0F
1C
1D
0e
1a
1Z
0X
1V
0T
0?
1@
0A
1B
1;
0=
1R
0+
1)
10
0/
1.
0-
0f
1b
1[
0Y
1W
0U
1S
#785000
0!
0C
0D
1I
0G
0H
#790000
1$
1!
1F
1C
1D
0g
1c
0Z
1X
0V
1T
1?
0@
1A
0B
1<
0>
0_
0R
0,
1*
00
1/
0.
1-
0h
1d
0[
1Y
0W
1U
0`
0S
#795000
0!
0C
0D
0I
1G
1H
0M
1L
#800000
1!
1C
1D
1e
0a
1Z
0X
1V
0T
0?
1@
0A
1B
0;
1=
1R
1+
0)
10
0/
1.
0-
1f
0b
1[
0Y
1W
0U
1S
#805000
0!
0C
0D
1I
0N
0G
1\
0H
#810000
1!
1C
1D
1g
0c
1]
0Z
1X
0V
1T
1?
0@
1A
0B
19
0<
1>
1_
0R
1,
0*
12
00
1/
0.
1-
1h
0d
0[
1Y
0W
1U
1`
0S
#815000
0!
0C
0D
0I
1N
1G
0\
1H
1M
0L
#820000
1!
1C
1D
0e
1a
1Z
0X
1V
0T
0?
1@
0A
1B
1;
0=
1R
0+
1)
10
0/
1.
0-
0f
1b
1[
0Y
1W
0U
1S
#825000
0!
0C
0D
1I
0G
0H
#830000
0'
0$
1!
0K
0F
1C
1D
0g
1c
0Z
1X
0V
1T
1?
0@
1A
0B
1<
0>
0_
0R
0,
1*
00
1/
0.
1-
0h
1d
0[
1Y
0W
1U
0`
0S
#835000
0!
0C
0D
0I
1G
1H
0M
0N
1L
#840000
1!
1C
1D
1e
0a
1Z
0X
1V
0T
0?
1@
0A
1B
0;
1=
1R
1+
0)
10
0/
1.
0-
1f
0b
1[
0Y
1W
0U
1S
#845000
0!
0C
0D
1I
1N
0G
0H
#850000
1!
1C
1D
1g
0c
0Z
1X
0V
1T
1?
0@
1A
0B
0<
1>
1_
0R
1,
0*
00
1/
0.
1-
1h
0d
0[
1Y
0W
1U
1`
0S
#855000
0!
0C
0D
0I
0N
1G
1H
1M
1N
0L
#860000
1!
1C
1D
0e
1a
1Z
0X
1V
0T
0?
1@
0A
1B
1;
0=
1R
0+
1)
10
0/
1.
0-
0f
1b
1[
0Y
1W
0U
1S
#865000
0!
0C
0D
1I
0G
0H
#870000
1!
1C
1D
0g
1c
0Z
1X
0V
1T
1?
0@
1A
0B
1<
0>
0_
0R
0,
1*
00
1/
0.
1-
0h
1d
0[
1Y
0W
1U
0`
0S
#875000
0!
0C
0D
0I
1G
1H
0M
0N
1L
#880000
1!
1C
1D
1e
0a
1Z
0X
1V
0T
0?
1@
0A
1B
0;
1=
1R
1+
0)
10
0/
1.
0-
1f
0b
1[
0Y
1W
0U
1S
#885000
0!
0C
0D
1I
1N
0G
0H
#890000
1!
1C
1D
1g
0c
0Z
1X
0V
1T
1?
0@
1A
0B
0<
1>
1_
0R
1,
0*
00
1/
0.
1-
1h
0d
0[
1Y
0W
1U
1`
0S
#895000
0!
0C
0D
0I
0N
1G
1H
1M
1N
0L
#900000
1!
1C
1D
0e
1a
1Z
0X
1V
0T
0?
1@
0A
1B
1;
0=
1R
0+
1)
10
0/
1.
0-
0f
1b
1[
0Y
1W
0U
1S
#905000
0!
0C
0D
1I
0G
0H
#910000
1!
1C
1D
0g
1c
0Z
1X
0V
1T
1?
0@
1A
0B
1<
0>
0_
0R
0,
1*
00
1/
0.
1-
0h
1d
0[
1Y
0W
1U
0`
0S
#915000
0!
0C
0D
0I
1G
1H
0M
0N
1L
#920000
1!
1C
1D
1e
0a
1Z
0X
1V
0T
0?
1@
0A
1B
0;
1=
1R
1+
0)
10
0/
1.
0-
1f
0b
1[
0Y
1W
0U
1S
#925000
0!
0C
0D
1I
1N
0G
0H
#930000
1!
1C
1D
1g
0c
0Z
1X
0V
1T
1?
0@
1A
0B
0<
1>
1_
0R
1,
0*
00
1/
0.
1-
1h
0d
0[
1Y
0W
1U
1`
0S
#935000
0!
0C
0D
0I
0N
1G
1H
1M
1N
0L
#940000
1!
1C
1D
0e
1a
1Z
0X
1V
0T
0?
1@
0A
1B
1;
0=
1R
0+
1)
10
0/
1.
0-
0f
1b
1[
0Y
1W
0U
1S
#945000
0!
0C
0D
1I
0G
0H
#950000
1!
1C
1D
0g
1c
0Z
1X
0V
1T
1?
0@
1A
0B
1<
0>
0_
0R
0,
1*
00
1/
0.
1-
0h
1d
0[
1Y
0W
1U
0`
0S
#955000
0!
0C
0D
0I
1G
1H
0M
0N
1L
#960000
1!
1C
1D
1e
0a
1Z
0X
1V
0T
0?
1@
0A
1B
0;
1=
1R
1+
0)
10
0/
1.
0-
1f
0b
1[
0Y
1W
0U
1S
#965000
0!
0C
0D
1I
1N
0G
0H
#970000
1!
1C
1D
1g
0c
0Z
1X
0V
1T
1?
0@
1A
0B
0<
1>
1_
0R
1,
0*
00
1/
0.
1-
1h
0d
0[
1Y
0W
1U
1`
0S
#975000
0!
0C
0D
0I
0N
1G
1H
1M
1N
0L
#980000
1!
1C
1D
0e
1a
1Z
0X
1V
0T
0?
1@
0A
1B
1;
0=
1R
0+
1)
10
0/
1.
0-
0f
1b
1[
0Y
1W
0U
1S
#985000
0!
0C
0D
1I
0G
0H
#990000
1!
1C
1D
0g
1c
0Z
1X
0V
1T
1?
0@
1A
0B
1<
0>
0_
0R
0,
1*
00
1/
0.
1-
0h
1d
0[
1Y
0W
1U
0`
0S
#995000
0!
0C
0D
0I
1G
1H
0M
0N
1L
